<svg width="16" height="14" viewBox="0 0 16 14" fill="none" xmlns="http://www.w3.org/2000/svg">
<path d="M15.75 1.54688L13.3594 12.7266C13.1719 13.5234 12.7383 13.7344 12.0586 13.3594L8.4375 10.6875L6.67969 12.375C6.44531 12.6094 6.19922 12.7266 5.94141 12.7266L6.22266 9.03516L12.9375 2.98828C13.1016 2.82422 13.1016 2.73047 12.9375 2.70703C12.7969 2.66016 12.6445 2.69531 12.4805 2.8125L4.18359 8.05078L0.597656 6.92578C0.199219 6.80859 0.0117187 6.63281 0.0351562 6.39844C0.0585938 6.16406 0.304688 5.96484 0.773438 5.80078L14.7305 0.386719C15.082 0.269531 15.3633 0.316406 15.5742 0.527344C15.7852 0.714844 15.8438 1.05469 15.75 1.54688Z" fill="white"/>
</svg>
