<svg width="16" height="16" viewBox="0 0 16 16" fill="none" xmlns="http://www.w3.org/2000/svg">
<path d="M5.02734 5.21875C5.82422 4.42188 6.78516 4.02344 7.91016 4.02344C9.03516 4.02344 9.98438 4.42188 10.7578 5.21875C11.5547 5.99219 11.9531 6.94141 11.9531 8.06641C11.9531 9.19141 11.5547 10.1523 10.7578 10.9492C9.98438 11.7227 9.03516 12.1094 7.91016 12.1094C6.78516 12.1094 5.82422 11.7227 5.02734 10.9492C4.25391 10.1523 3.86719 9.19141 3.86719 8.06641C3.86719 6.94141 4.25391 5.99219 5.02734 5.21875ZM6.04688 9.92969C6.5625 10.4453 7.18359 10.7031 7.91016 10.7031C8.63672 10.7031 9.25781 10.4453 9.77344 9.92969C10.2891 9.41406 10.5469 8.79297 10.5469 8.06641C10.5469 7.33984 10.2891 6.71875 9.77344 6.20312C9.25781 5.6875 8.63672 5.42969 7.91016 5.42969C7.18359 5.42969 6.5625 5.6875 6.04688 6.20312C5.53125 6.71875 5.27344 7.33984 5.27344 8.06641C5.27344 8.79297 5.53125 9.41406 6.04688 9.92969ZM12.7617 3.21484C12.9492 3.37891 13.043 3.58984 13.043 3.84766C13.043 4.10547 12.9492 4.32812 12.7617 4.51562C12.5977 4.70312 12.3867 4.79688 12.1289 4.79688C11.8711 4.79688 11.6484 4.70312 11.4609 4.51562C11.2734 4.32812 11.1797 4.10547 11.1797 3.84766C11.1797 3.58984 11.2734 3.37891 11.4609 3.21484C11.6484 3.02734 11.8711 2.93359 12.1289 2.93359C12.3867 2.93359 12.5977 3.02734 12.7617 3.21484ZM15.75 4.83203C15.7734 5.46484 15.7852 6.54297 15.7852 8.06641C15.7852 9.58984 15.7734 10.668 15.75 11.3008C15.6797 12.7305 15.2461 13.8438 14.4492 14.6406C13.6758 15.4141 12.5742 15.8242 11.1445 15.8711C10.5117 15.918 9.43359 15.9414 7.91016 15.9414C6.38672 15.9414 5.30859 15.918 4.67578 15.8711C3.24609 15.8008 2.14453 15.3789 1.37109 14.6055C1.06641 14.3242 0.820312 13.9961 0.632812 13.6211C0.445312 13.2461 0.304688 12.8828 0.210938 12.5312C0.140625 12.1797 0.105469 11.7695 0.105469 11.3008C0.0585937 10.668 0.0351562 9.58984 0.0351562 8.06641C0.0351562 6.54297 0.0585937 5.45312 0.105469 4.79688C0.175781 3.39062 0.597656 2.30078 1.37109 1.52734C2.14453 0.730469 3.24609 0.296875 4.67578 0.226562C5.30859 0.203125 6.38672 0.191406 7.91016 0.191406C9.43359 0.191406 10.5117 0.203125 11.1445 0.226562C12.5742 0.296875 13.6758 0.730469 14.4492 1.52734C15.2461 2.30078 15.6797 3.40234 15.75 4.83203ZM14.0625 12.707C14.1328 12.5195 14.1914 12.2852 14.2383 12.0039C14.2852 11.6992 14.3203 11.3477 14.3438 10.9492C14.3672 10.5273 14.3789 10.1875 14.3789 9.92969C14.3789 9.67188 14.3789 9.30859 14.3789 8.83984C14.3789 8.37109 14.3789 8.11328 14.3789 8.06641C14.3789 7.99609 14.3789 7.73828 14.3789 7.29297C14.3789 6.82422 14.3789 6.46094 14.3789 6.20312C14.3789 5.94531 14.3672 5.61719 14.3438 5.21875C14.3203 4.79688 14.2852 4.44531 14.2383 4.16406C14.1914 3.85938 14.1328 3.61328 14.0625 3.42578C13.7812 2.69922 13.2773 2.19531 12.5508 1.91406C12.3633 1.84375 12.1172 1.78516 11.8125 1.73828C11.5312 1.69141 11.1797 1.65625 10.7578 1.63281C10.3594 1.60937 10.0312 1.59766 9.77344 1.59766C9.53906 1.59766 9.17578 1.59766 8.68359 1.59766C8.21484 1.59766 7.95703 1.59766 7.91016 1.59766C7.86328 1.59766 7.60547 1.59766 7.13672 1.59766C6.66797 1.59766 6.30469 1.59766 6.04688 1.59766C5.78906 1.59766 5.44922 1.60937 5.02734 1.63281C4.62891 1.65625 4.27734 1.69141 3.97266 1.73828C3.69141 1.78516 3.45703 1.84375 3.26953 1.91406C2.54297 2.19531 2.03906 2.69922 1.75781 3.42578C1.6875 3.61328 1.62891 3.85938 1.58203 4.16406C1.53516 4.44531 1.5 4.79688 1.47656 5.21875C1.45312 5.61719 1.44141 5.94531 1.44141 6.20312C1.44141 6.4375 1.44141 6.80078 1.44141 7.29297C1.44141 7.76172 1.44141 8.01953 1.44141 8.06641C1.44141 8.16016 1.44141 8.38281 1.44141 8.73438C1.44141 9.0625 1.44141 9.34375 1.44141 9.57812C1.44141 9.78906 1.44141 10.0703 1.44141 10.4219C1.46484 10.7734 1.48828 11.0781 1.51172 11.3359C1.53516 11.5703 1.57031 11.8164 1.61719 12.0742C1.66406 12.332 1.71094 12.543 1.75781 12.707C2.0625 13.4336 2.56641 13.9375 3.26953 14.2188C3.45703 14.2891 3.69141 14.3477 3.97266 14.3945C4.27734 14.4414 4.62891 14.4766 5.02734 14.5C5.44922 14.5234 5.77734 14.5352 6.01172 14.5352C6.26953 14.5352 6.63281 14.5352 7.10156 14.5352C7.59375 14.5352 7.86328 14.5352 7.91016 14.5352C7.98047 14.5352 8.23828 14.5352 8.68359 14.5352C9.15234 14.5352 9.51562 14.5352 9.77344 14.5352C10.0312 14.5352 10.3594 14.5234 10.7578 14.5C11.1797 14.4766 11.5312 14.4414 11.8125 14.3945C12.1172 14.3477 12.3633 14.2891 12.5508 14.2188C13.2773 13.9141 13.7812 13.4102 14.0625 12.707Z" fill="white"/>
</svg>
