<svg width="20" height="14" viewBox="0 0 20 14" fill="none" xmlns="http://www.w3.org/2000/svg">
<path d="M19.3359 2.42578C19.4062 2.70703 19.4648 3.05859 19.5117 3.48047C19.582 3.90234 19.6289 4.32422 19.6523 4.74609C19.6758 5.14453 19.6875 5.51953 19.6875 5.87109C19.7109 6.22266 19.7227 6.51562 19.7227 6.75V7.06641C19.7227 9.17578 19.5938 10.7344 19.3359 11.7422C19.2188 12.1406 19.0078 12.4922 18.7031 12.7969C18.3984 13.1016 18.0352 13.3125 17.6133 13.4297C17.168 13.5469 16.3242 13.6406 15.082 13.7109C13.8398 13.7578 12.7031 13.793 11.6719 13.8164H10.125C6.11719 13.8164 3.62109 13.6875 2.63672 13.4297C1.72266 13.1719 1.14844 12.6094 0.914062 11.7422C0.796875 11.2969 0.703125 10.6875 0.632812 9.91406C0.585938 9.11719 0.550781 8.44922 0.527344 7.91016V7.06641C0.527344 4.98047 0.65625 3.43359 0.914062 2.42578C1.03125 2.00391 1.24219 1.64063 1.54688 1.33594C1.85156 1.03125 2.21484 0.820312 2.63672 0.703125C3.08203 0.585938 3.92578 0.503906 5.16797 0.457031C6.41016 0.386719 7.54688 0.339844 8.57812 0.316406H10.125C14.1328 0.316406 16.6289 0.445313 17.6133 0.703125C18.0352 0.820312 18.3984 1.03125 18.7031 1.33594C19.0078 1.64063 19.2188 2.00391 19.3359 2.42578ZM8.15625 9.94922L13.1836 7.06641L8.15625 4.21875V9.94922Z" fill="white"/>
</svg>
